[
    {
        "id": 1,
        "product_url": "https://in.puma.com/in/en/pd/bmw-m-motorsport-metal-energy-logo-mens-t-shirt/536687?swatch=01",
        "image_primary": "https://images.puma.com/image/upload/f_auto,q_auto,b_rgb:fafafa,w_1350,h_1350/global/536687/01/mod01/fnd/IND/fmt/png/BMW-M-Motorsport-Metal-Energy-Logo-Men's-T-Shirt",
        "image_secondary": "https://images.puma.com/image/upload/f_auto,q_auto,b_rgb:fafafa,w_750,h_750/global/536687/01/mod05/fnd/IND/fmt/png/BMW-M-Motorsport-Metal-Energy-Logo-Men's-T-Shirt",
        "title": "BMW M Motorsport Metal Energy Logo Men's T-Shirt",
        "price": "₹2,999",
        "description": "The aggressive lines of BMW M Motorsport’s powerful automobiles inspire the energetic silhouette and metallic finishing of this proud logo from our Metal Energy collection.",
        "style": "536687_01",
        "color": "Puma Black",
        "gender": "male",
        "category": "t-shirt"
    },
    {
        "id": 2,
        "product_url": "https://in.puma.com/in/en/pd/puma-graphic-mens-t-shirt/847844?swatch=01",
        "image_primary": "https://images.puma.com/image/upload/f_auto,q_auto,b_rgb:fafafa,w_1350,h_1350/global/847844/01/mod01/fnd/IND/fmt/png/PUMA-Graphic-Men's-T-Shirt",
        "image_secondary": "https://images.puma.com/image/upload/f_auto,q_auto,b_rgb:fafafa,w_750,h_750/global/847844/01/mod02/fnd/IND/fmt/png/PUMA-Graphic-Men's-T-Shirt",
        "title": "PUMA Graphic Men's T-Shirt",
        "price": "₹749",
        "description": "Graphic t-shirts will always be our go-to for that flawless casual look. The PUMA Graphic Men's T-Shirt will only help you amp up the casual style. Featuring unmissable graphic print and PUMA branding, you will always be ready to rock the streets.",
        "style": "847844_01",
        "color": "Puma White",
        "gender": "male",
        "category": "t-shirt"
    },
    {
        "id": 3,
        "product_url": "https://in.puma.com/in/en/pd/feel-it-womens-mesh-logo-t-shirt/518929?search=true&swatch=04",
        "image_primary": "https://images.puma.com/image/upload/f_auto,q_auto,b_rgb:fafafa,w_1350,h_1350/global/518929/04/mod01/fnd/IND/fmt/png/Feel-It-Women's-Mesh-Logo-T-Shirt",
        "image_secondary": "https://images.puma.com/image/upload/f_auto,q_auto,b_rgb:fafafa,w_750,h_750/global/518929/04/mod02/fnd/IND/fmt/png/Feel-It-Women's-Mesh-Logo-T-Shirt",
        "title": "Feel It Women's Mesh Logo T-Shirt",
        "price": "₹1,559",
        "description": "The Feel It Mesh Logo Training T-Shirt is your go-to for breathable comfort and style. It features mesh inserts at each sleeve plus a large swath of branded mesh across the back, but the show-stopper is the bold PUMA graphic across the front.",
        "style": "518929_04",
        "color": "Puma White-Dark Denim",
        "gender": "female",
        "category": "t-shirt"
    },
    {
        "id": 4,
        "product_url": "https://in.puma.com/in/en/pd/studio-yogini-trend-womens-training-sweatshirt/521586?swatch=17",
        "image_primary": "https://images.puma.com/image/upload/f_auto,q_auto,b_rgb:fafafa,w_1350,h_1350/global/521586/17/mod01/fnd/IND/fmt/png/Studio-Yogini-Trend-Women's-Training-Sweatshirt",
        "image_secondary": "https://images.puma.com/image/upload/f_auto,q_auto,b_rgb:fafafa,w_750,h_750/global/521586/17/mod02/fnd/IND/fmt/png/Studio-Yogini-Trend-Women's-Training-Sweatshirt",
        "title": "Studio Yogini Trend Women's Training Sweatshirt",
        "price": "₹2,099",
        "description": "Go beyond basics with our Studio collection, a line of high-performance training apparel designed for movement, featuring ultra stretch materials and features designed to enhance range of motion and support you through even the most strenuous workouts. Our Studio Yogini Trend Training Sweatshirt incorporates a luxurious comfortable fit and the latest in PUMA recycled materials and dryCELL technology.",
        "style": "521586_17",
        "color": "Lavender Fog Heather",
        "gender": "female",
        "category": "sweatshirt"
    },
    {
        "id": 5,
        "product_url": "https://in.puma.com/in/en/pd/studio-yogini-trend-womens-training-sweatshirt/521586?swatch=01",
        "image_primary": "https://images.puma.com/image/upload/f_auto,q_auto,b_rgb:fafafa,w_1350,h_1350/global/521586/01/mod01/fnd/IND/fmt/png/Studio-Yogini-Trend-Women's-Training-Sweatshirt",
        "image_secondary": "https://images.puma.com/image/upload/f_auto,q_auto,b_rgb:fafafa,w_750,h_750/global/521586/01/fnd/IND/fmt/png/Studio-Yogini-Trend-Women's-Training-Sweatshirt",
        "title": "Studio Yogini Trend Women's Training Sweatshirt",
        "price": "₹2,099",
        "description": "Go beyond basics with our Studio collection, a line of high-performance training apparel designed for movement, featuring ultra stretch materials and features designed to enhance range of motion and support you through even the most strenuous workouts. Our Studio Yogini Trend Training Sweatshirt incorporates a luxurious comfortable fit and the latest in PUMA recycled materials and dryCELL technology.",
        "style": "521586_01",
        "color": "Puma Black",
        "gender": "female",
        "category": "sweatshirt"
    },
    {
        "id": 6,
        "product_url": "https://in.puma.com/in/en/pd/power-cropped-womens-hoodie/848431?swatch=01",
        "image_primary": "https://images.puma.com/image/upload/f_auto,q_auto,b_rgb:fafafa,w_1350,h_1350/global/848431/01/mod01/fnd/IND/fmt/png/Power-Cropped-Women's-Hoodie",
        "image_secondary": "https://images.puma.com/image/upload/f_auto,q_auto,b_rgb:fafafa,w_750,h_750/global/848431/01/mod03/fnd/IND/fmt/png/Power-Cropped-Women's-Hoodie",
        "title": "Power Cropped Women's Hoodie",
        "price": "₹2,379",
        "description": "Infuse any outfit with the power of head-turning PUMA design in our Power collection, a line of inspired must-haves for any street style devotee. Our Power Cropped Hoodie features a roomy relaxed fit with a cheeky cropped hem line for an extra boost of attitude.",
        "style": "848431_01",
        "color": "Puma Black",
        "gender": "female",
        "category": "sweatshirt"
    },
    {
        "id": 7,
        "product_url": "https://in.puma.com/in/en/pd/tec-sport-womens-jacket/848906?swatch=42",
        "image_primary": "https://images.puma.com/image/upload/f_auto,q_auto,b_rgb:fafafa,w_1350,h_1350/global/848906/42/mod01/fnd/IND/fmt/png/Tec-Sport-Women's-Jacket",
        "image_secondary": "https://images.puma.com/image/upload/f_auto,q_auto,b_rgb:fafafa,w_750,h_750/global/848906/42/mod02/fnd/IND/fmt/png/Tec-Sport-Women's-Jacket",
        "title": "Tec Sport Women's Jacket",
        "price": "₹4,999",
        "description": "The Tech Sport Women's Jacket offers value for money. Throw it on to create a stylish look you can wear in the gym and beyond!. A both comfortable and stylish hood combined with a fashionable contrasting colourblock design make this sweatshirt a must-have for the winter season!",
        "style": "848906_42",
        "color": "Aubergine",
        "gender": "female",
        "category": "jacket"
    },
    {
        "id": 8,
        "product_url": "https://in.puma.com/in/en/pd/tec-sport-womens-jacket/848906?swatch=04",
        "image_primary": "https://images.puma.com/image/upload/f_auto,q_auto,b_rgb:fafafa,w_1350,h_1350/global/848906/04/mod01/fnd/IND/fmt/png/Tec-Sport-Women's-Jacket",
        "image_secondary": "https://images.puma.com/image/upload/f_auto,q_auto,b_rgb:fafafa,w_750,h_750/global/848906/04/fnd/IND/fmt/png/Tec-Sport-Women's-Jacket",
        "title": "Tec Sport Women's Jacket",
        "price": "₹4,999",
        "description": "The Tech Sport Women's Jacket offers value for money. Throw it on to create a stylish look you can wear in the gym and beyond!. A both comfortable and stylish hood combined with a fashionable contrasting colourblock design make this sweatshirt a must-have for the winter season!",
        "style": "848906_04",
        "color": "Puma Black",
        "gender": "female",
        "category": "jacket"
    },
    {
        "id": 9,
        "product_url": "https://in.puma.com/in/en/pd/power-cropped-womens-hoodie/848431?swatch=61",
        "image_primary": "https://images.puma.com/image/upload/f_auto,q_auto,b_rgb:fafafa,w_1350,h_1350/global/848431/61/mod01/fnd/IND/fmt/png/Power-Cropped-Women's-Hoodie",
        "image_secondary": "https://images.puma.com/image/upload/f_auto,q_auto,b_rgb:fafafa,w_750,h_750/global/848431/61/mod03/fnd/IND/fmt/png/Power-Cropped-Women's-Hoodie",
        "title": "Power Cropped Women's Hoodie",
        "price": "₹2,269",
        "description": "Infuse any outfit with the power of head-turning PUMA design in our Power collection, a line of inspired must-haves for any street style devotee. Our Power Cropped Hoodie features a roomy relaxed fit with a cheeky cropped hem line for an extra boost of attitude.",
        "style": "848431_61",
        "color": "Porcelain",
        "gender": "female",
        "category": "sweatshirt"
    },
    {
        "id": 10,
        "product_url": "https://in.puma.com/in/en/pd/active-essential-mens-polo/849348?swatch=97",
        "image_primary": "https://images.puma.com/image/upload/f_auto,q_auto,b_rgb:fafafa,w_1350,h_1350/global/849348/97/mod01/fnd/IND/fmt/png/Active-Essential-Men's-Polo",
        "image_secondary": "https://images.puma.com/image/upload/f_auto,q_auto,b_rgb:fafafa,w_750,h_750/global/849348/97/mod02/fnd/IND/fmt/png/Active-Essential-Men's-Polo",
        "title": "Active Essential Men's Polo",
        "price": "₹1,169",
        "description": "Just like the name suggests, the Active Essential Men's Polo is indeed a major essential addition to your casual wardrobe. Perfect for outdoors and indoors, with its comfortable fabric and PUMA's branding, this polo will make your feel great whenever you don it.",
        "style": "849348_97",
        "color": "Puma Black",
        "gender": "male",
        "category": "t-shirt"
    },
    {
        "id": 11,
        "product_url": "https://in.puma.com/in/en/pd/classics-logo-regular-fit-mens-t-shirt/530089?swatch=58",
        "image_primary": "https://images.puma.com/image/upload/f_auto,q_auto,b_rgb:fafafa,w_1350,h_1350/global/530089/58/mod01/fnd/IND/fmt/png/Classics-Logo-Regular-Fit-Men's-T-Shirt",
        "image_secondary": "https://images.puma.com/image/upload/f_auto,q_auto,b_rgb:fafafa,w_750,h_750/global/530089/58/mod04/fnd/IND/fmt/png/Classics-Logo-Regular-Fit-Men's-T-Shirt",
        "title": "Classics Logo Regular Fit Men's T-Shirt",
        "price": "₹759",
        "description": "Sleek, stylish streetwear for the new season: this is a classic tee with a twist, showcasing an eye-catching PUMA Archive No. 1 Logo across the chest, executed in pure Forever Better Initiative cotton with a regular fit and crew-neck cut.",
        "style": "530089_58",
        "color": "Puma Royal",
        "gender": "male",
        "category": "t-shirt"
    },
    {
        "id": 12,
        "product_url": "https://in.puma.com/in/en/pd/puma-mens-rain-jacket/848780?swatch=01",
        "image_primary": "https://images.puma.com/image/upload/f_auto,q_auto,b_rgb:fafafa,w_1350,h_1350/global/848780/01/mod01/fnd/IND/fmt/png/PUMA-Men's-Rain-Jacket",
        "image_secondary": "https://images.puma.com/image/upload/f_auto,q_auto,b_rgb:fafafa,w_750,h_750/global/848780/01/mod02/fnd/IND/fmt/png/PUMA-Men's-Rain-Jacket",
        "title": "PUMA Men's Rain Jacket",
        "price": "₹3,599",
        "description": "The Men's Rain Jacket is a trusty style from PUMA which makes sure that you're freedom to step out in the wettest of weather isn't taken away. Highly functional, waterproof materials protect them from the wind and the rain, while the zip pockets mean they can keep small valuables on them without the risk of them getting wet.",
        "style": "848780_01",
        "color": "Puma Black",
        "gender": "male",
        "category": "jacket"
    },
    {
        "id": 13,
        "product_url": "https://in.puma.com/in/en/pd/iconic-t7-double-knit-mens-track-jacket/530745?swatch=94",
        "image_primary": "https://images.puma.com/image/upload/f_auto,q_auto,b_rgb:fafafa,w_1350,h_1350/global/530745/94/mod01/fnd/IND/fmt/png/Iconic-T7-Double-Knit-Men's-Track-Jacket",
        "image_secondary": "https://images.puma.com/image/upload/f_auto,q_auto,b_rgb:fafafa,w_1050,h_1050/global/530745/94/mod04/fnd/IND/fmt/png/Iconic-T7-Double-Knit-Men's-Track-Jacket",
        "title": "Iconic T7 Double Knit Men's Track Jacket",
        "price": "₹3,749",
        "description": "A PUMA original, the T7 track-inspired collection made a name for itself with 7cm signature stripes and quickly became as popular on city streets as it was on the training grounds. Hidden away in our archives, the suit has been faithfully replicated, and is just as iconic today as it was back then. With sleeve striping and a sleek, sporty fit, this structured jacket will have you bringing the classics back in style.",
        "style": "530745_94",
        "color": "Puma Black-Fandom",
        "gender": "male",
        "category": "jacket"
    },
    {
        "id": 14,
        "product_url": "https://in.puma.com/in/en/pd/iconic-t7-double-knit-mens-track-jacket/530745?swatch=98",
        "image_primary": "https://images.puma.com/image/upload/f_auto,q_auto,b_rgb:fafafa,w_1350,h_1350/global/530745/98/mod01/fnd/IND/fmt/png/Iconic-T7-Double-Knit-Men's-Track-Jacket",
        "image_secondary": "https://images.puma.com/image/upload/f_auto,q_auto,b_rgb:fafafa,w_1050,h_1050/global/530745/98/mod03/fnd/IND/fmt/png/Iconic-T7-Double-Knit-Men's-Track-Jacket",
        "title": "Iconic T7 Double Knit Men's Track Jacket",
        "price": "₹4,249",
        "description": "A PUMA original, the T7 track-inspired collection made a name for itself with 7cm signature stripes and quickly became as popular on city streets as it was on the training grounds. Hidden away in our archives, the suit has been faithfully replicated, and is just as iconic today as it was back then. With sleeve striping and a sleek, sporty fit, this structured jacket will have you bringing the classics back in style.",
        "style": "530745_98",
        "color": "Puma Black-SWxP",
        "gender": "male",
        "category": "jacket"
    },
    {
        "id": 15,
        "product_url": "https://in.puma.com/in/en/pd/essential-regular-fit-mens-sweat-shirt/847237?swatch=02",
        "image_primary": "https://images.puma.com/image/upload/f_auto,q_auto,b_rgb:fafafa,w_1050,h_1050/global/847237/02/mod01/fnd/IND/fmt/png/Essential-Regular-Fit-Men's-Sweat-Shirt",
        "image_secondary": "https://images.puma.com/image/upload/f_auto,q_auto,b_rgb:fafafa,w_1050,h_1050/global/847237/02/mod03/fnd/IND/fmt/png/Essential-Regular-Fit-Men's-Sweat-Shirt",
        "title": "Essential Regular Fit Men's Sweat Shirt",
        "price": "₹2,199",
        "description": "Who doesn't need something like this in their wardrobe? A full-length hoodie is just about the most versatile piece of clothing you can own. This one features the iconic PUMA Cat Logo prominently on the chest. Coming from our Essentials Collection, this is, as the name suggests, an essential for any man's wardrobe.",
        "style": "847237_02",
        "color": "Puma White",
        "gender": "male",
        "category": "sweatshirt"
    },
    {
        "id": 16,
        "product_url": "https://in.puma.com/in/en/pd/essential-regular-fit-mens-sweat-shirt/847237?swatch=04",
        "image_primary": "https://images.puma.com/image/upload/f_auto,q_auto,b_rgb:fafafa,w_1050,h_1050/global/847237/04/mod01/fnd/IND/fmt/png/Essential-Regular-Fit-Men's-Sweat-Shirt",
        "image_secondary": "https://images.puma.com/image/upload/f_auto,q_auto,b_rgb:fafafa,w_1050,h_1050/global/847237/04/mod03/fnd/IND/fmt/png/Essential-Regular-Fit-Men's-Sweat-Shirt",
        "title": "Essential Regular Fit Men's Sweat Shirt",
        "price": "₹2,269",
        "description": "Who doesn't need something like this in their wardrobe? A full-length hoodie is just about the most versatile piece of clothing you can own. This one features the iconic PUMA Cat Logo prominently on the chest. Coming from our Essentials Collection, this is, as the name suggests, an essential for any man's wardrobe.",
        "style": "847237_04",
        "color": "Peacoat",
        "gender": "male",
        "category": "sweatshirt"
    },
    {
        "id": 17,
        "product_url": "https://in.puma.com/in/en/pd/puma-essential-crew-mens-sweat-shirt/847460?swatch=03",
        "image_primary": "https://images.puma.com/image/upload/f_auto,q_auto,b_rgb:fafafa,w_1050,h_1050/global/847460/03/mod01/fnd/IND/fmt/png/PUMA-Essential-Crew-Men's-Sweat-Shirt",
        "image_secondary": "https://images.puma.com/image/upload/f_auto,q_auto,b_rgb:fafafa,w_1050,h_1050/global/847460/03/mod03/fnd/IND/fmt/png/PUMA-Essential-Crew-Men's-Sweat-Shirt",
        "title": "PUMA Essential Crew Men's Sweat Shirt",
        "price": "₹1,949",
        "description": "PUMA brings you the latest in style must-haves in our Essentials line – a collection of essential staples made with the street style enthusiast in mind. Our Essentials Crew Neck Full-Length Sweatshirt is a sleek staple made for the sustainably minded, featuring a comfortable fit and recycled materials.",
        "style": "847460_03",
        "color": "Medium Gray Heather",
        "gender": "male",
        "category": "sweatshirt"
    },
    {
        "id": 18,
        "product_url": "https://in.puma.com/in/en/pd/mercedes-amg-petronas-motorsport-formula-one-hooded-sweat-jacket-men/534906?swatch=01",
        "image_primary": "https://images.puma.com/image/upload/f_auto,q_auto,b_rgb:fafafa,w_1050,h_1050/global/534906/01/mod01/fnd/IND/fmt/png/Mercedes-AMG-Petronas-Motorsport-Formula-One-Hooded-Sweat-Jacket-Men",
        "image_secondary": "https://images.puma.com/image/upload/f_auto,q_auto,b_rgb:fafafa,w_1050,h_1050/global/534906/01/mod02/fnd/IND/fmt/png/Mercedes-AMG-Petronas-Motorsport-Formula-One-Hooded-Sweat-Jacket-Men",
        "title": "Mercedes-AMG Petronas Motorsport Formula One Hooded Sweat Jacket Men",
        "price": "₹9,999",
        "description": "When temperatures start to drop, throw on this handy hoodie to stay snug and stylish. The modern look is enhanced with colour-contrast details, plus slick PUMA and Mercedes-AMG Petronas Motorsport Formula One branding details, so there’ll be no doubts about who you’re backing at the race track.",
        "style": "534906_01",
        "color": "Puma Black",
        "gender": "male",
        "category": "sweatshirt"
    },
    {
        "id": 19,
        "product_url": "https://in.puma.com/in/en/pd/puma-graphic-mens-hoodie/670280?swatch=80",
        "image_primary": "https://images.puma.com/image/upload/f_auto,q_auto,b_rgb:fafafa,w_1050,h_1050/global/670280/80/mod01/fnd/IND/fmt/png/PUMA-Graphic-Men's-Hoodie",
        "image_secondary": "https://images.puma.com/image/upload/f_auto,q_auto,b_rgb:fafafa,w_1050,h_1050/global/670280/80/mod03/fnd/IND/fmt/png/PUMA-Graphic-Men's-Hoodie",
        "title": "PUMA Graphic Men's Hoodie",
        "price": "₹1,819",
        "description": "Bold branding, classic cutlines and a modern fit elevate this far-from-basic, PUMA Graphic Men's Hoodie, from causal to street chic. Also, keep your conscious clean because this is made under the Forever Better Initiative which promoted sustainable cotton farming globally.",
        "style": "670280_80",
        "color": "Green Gables",
        "gender": "male",
        "category": "sweatshirt"
    },
    {
        "id": 20,
        "product_url": "https://in.puma.com/in/en/pd/puma-graphic-full-zip-mens-jacket/847774?swatch=63",
        "image_primary": "https://images.puma.com/image/upload/f_auto,q_auto,b_rgb:fafafa,w_1050,h_1050/global/847774/63/mod01/fnd/IND/fmt/png/PUMA-Graphic-Full-Zip-Men's-Jacket",
        "image_secondary": "https://images.puma.com/image/upload/f_auto,q_auto,b_rgb:fafafa,w_1050,h_1050/global/847774/63/mod02/fnd/IND/fmt/png/PUMA-Graphic-Full-Zip-Men's-Jacket",
        "title": "PUMA Graphic Full-Zip Men's Jacket",
        "price": "₹1,879",
        "description": "Whether it's during or after workout, the moment you zip the PUMA Graphic Full-Zip Men's Jacket will keep you comfortably covered.",
        "style": "847774_63",
        "color": "Future Blue",
        "gender": "male",
        "category": "jacket"
    }
]